YELLOW SUBMARINE Progress Journal - 3 Exploratory Data Analysis
…
read_wits_turkey_data_with_partners_top10 <- read_wits_turkey_data_with_partners_top10 %>%
  group_by(section_name) %>%
  mutate(cagr = ((trade_value_usd_exp[2020]/trade_value_usd_exp[2015])^(1/5)-1)*100) %>%
  ungroup()

read_wits_turkey_data_with_partners_top10 <- read_wits_turkey_data_with_partners_top10 %>%
  filter(year == 2020) %>%
  group_by(section_name) %>%
  mutate(total_trade_value_exp_2020 = sum(trade_value_usd_exp)/1000000) %>%
  ungroup()

print(read_wits_turkey_data_with_partners_top10)

# A tibble: 222,082 × 14
    year reporter_iso reporter_name partner_iso partner_name commodity_code
   <int> <chr>        <chr>         <chr>       <chr>        <chr>         
 1  2020 tur          Turkey        aze         Azerbaijan   060110        
 2  2020 tur          Turkey        bel         Belgium      060110        
 3  2020 tur          Turkey        chl         Chile        060110        
 4  2020 tur          Turkey        fra         France       060110        
 5  2020 tur          Turkey        geo         Georgia      060110        
 6  2020 tur          Turkey        irq         Iraq         060110        
 7  2020 tur          Turkey        isr         Israel       060110        
 8  2020 tur          Turkey        nld         Netherlands  060110        
 9  2020 tur          Turkey        syr         Syria        060110        
10  2020 tur          Turkey        tkm         Turkmenistan 060110        
# ℹ 222,072 more rows
# ℹ 8 more variables: commodity_name <chr>, section_code <chr>,
#   section_name <chr>, trade_value_usd_imp <dbl>, trade_value_usd_exp <dbl>,
#   partner_count <int>, cagr <dbl>, total_trade_value_exp_2020 <dbl>
…
read_wits_turkey_data_with_partners_top10 <- read_wits_turkey_data_with_partners_top10 %>%
  group_by(section_name) %>%
  mutate(cagr = ((trade_value_usd_imp[2020]/trade_value_usd_imp[2015])^(1/5)-1)*100) %>%
  ungroup()

read_wits_turkey_data_with_partners_top10 <- read_wits_turkey_data_with_partners_top10 %>%
  filter(year == 2020) %>%
  group_by(section_name) %>%
  mutate(total_trade_value_imp_2020 = sum(trade_value_usd_imp)/1000000) %>%
  ungroup()

print(read_wits_turkey_data_with_partners_top10)

# A tibble: 209,510 × 14
    year reporter_iso reporter_name partner_iso partner_name commodity_code
   <int> <chr>        <chr>         <chr>       <chr>        <chr>         
 1  2020 tur          Turkey        aze         Azerbaijan   060110        
 2  2020 tur          Turkey        bel         Belgium      060110        
 3  2020 tur          Turkey        chl         Chile        060110        
 4  2020 tur          Turkey        fra         France       060110        
 5  2020 tur          Turkey        geo         Georgia      060110        
 6  2020 tur          Turkey        irq         Iraq         060110        
 7  2020 tur          Turkey        isr         Israel       060110        
 8  2020 tur          Turkey        nld         Netherlands  060110        
 9  2020 tur          Turkey        syr         Syria        060110        
10  2020 tur          Turkey        tkm         Turkmenistan 060110        
# ℹ 209,500 more rows
# ℹ 8 more variables: commodity_name <chr>, section_code <chr>,
#   section_name <chr>, trade_value_usd_imp <dbl>, trade_value_usd_exp <dbl>,
#   partner_count <int>, cagr <dbl>, total_trade_value_imp_2020 <dbl>
…
